quartus/simulation/qsim/microprocessador.msim.vcd
$comment
	File created using the following command:
		vcd file microprocessador.msim.vcd -direction
$end
$date
	Mon May 29 20:17:54 2017
$end
$version
	ModelSim Version 10.1d
$end
$timescale
	1ps
$end
$scope module microprocessador_vlg_vec_tst $end
$var reg 1 ! clk $end
$var reg 1 " execute $end
$var reg 8 # externaldata [7:0] $end
$var reg 1 $ reset $end
$var wire 1 % carryflag $end
$var wire 1 & finished $end
$var wire 1 ' saida [7] $end
$var wire 1 ( saida [6] $end
$var wire 1 ) saida [5] $end
$var wire 1 * saida [4] $end
$var wire 1 + saida [3] $end
$var wire 1 , saida [2] $end
$var wire 1 - saida [1] $end
$var wire 1 . saida [0] $end
$var wire 1 / zero_sign $end
$var wire 1 0 sampler $end
$scope module i1 $end
$var wire 1 1 gnd $end
$var wire 1 2 vcc $end
$var wire 1 3 unknown $end
$var tri1 1 4 devclrn $end
$var tri1 1 5 devpor $end
$var tri1 1 6 devoe $end
$var wire 1 7 datapath0|ALU0|Add0~0_combout $end
$var wire 1 8 datapath0|ALU0|Add0~2_combout $end
$var wire 1 9 datapath0|ALU0|Add0~4_combout $end
$var wire 1 : datapath0|ALU0|Add0~6_combout $end
$var wire 1 ; datapath0|ALU0|Add0~8_combout $end
$var wire 1 < datapath0|ALU0|Add1~2_combout $end
$var wire 1 = datapath0|ALU0|Add2~1 $end
$var wire 1 > datapath0|ALU0|Add2~0_combout $end
$var wire 1 ? datapath0|ALU0|Add2~3 $end
$var wire 1 @ datapath0|ALU0|Add2~2_combout $end
$var wire 1 A datapath0|ALU0|Add2~5 $end
$var wire 1 B datapath0|ALU0|Add2~4_combout $end
$var wire 1 C datapath0|ALU0|Add1~4_combout $end
$var wire 1 D datapath0|ALU0|Add2~7 $end
$var wire 1 E datapath0|ALU0|Add2~6_combout $end
$var wire 1 F datapath0|ALU0|Add1~6_combout $end
$var wire 1 G datapath0|ALU0|Add2~9 $end
$var wire 1 H datapath0|ALU0|Add2~8_combout $end
$var wire 1 I datapath0|ALU0|Add1~8_combout $end
$var wire 1 J datapath0|ALU0|Add2~11 $end
$var wire 1 K datapath0|ALU0|Add2~10_combout $end
$var wire 1 L datapath0|ALU0|Add2~13 $end
$var wire 1 M datapath0|ALU0|Add2~12_combout $end
$var wire 1 N datapath0|ALU0|Add2~15 $end
$var wire 1 O datapath0|ALU0|Add2~14_combout $end
$var wire 1 P datapath0|ALU0|Add2~16_combout $end
$var wire 1 Q datapath0|ALU0|Mux18~0_combout $end
$var wire 1 R datapath0|mux0|Mux7~0_combout $end
$var wire 1 S datapath0|mux0|Mux7~1_combout $end
$var wire 1 T datapath0|ALU0|Mux8~0_combout $end
$var wire 1 U datapath0|ALU0|Mux8~1_combout $end
$var wire 1 V datapath0|ALU0|Mux8~3_combout $end
$var wire 1 W datapath0|mux0|Mux2~3_combout $end
$var wire 1 X datapath0|mux0|Mux2~4_combout $end
$var wire 1 Y datapath0|mux0|Mux2~5_combout $end
$var wire 1 Z datapath0|mux0|Mux2~6_combout $end
$var wire 1 [ datapath0|mux0|Mux2~7_combout $end
$var wire 1 \ datapath0|mux0|Mux7~2_combout $end
$var wire 1 ] datapath0|mux0|Mux7~3_combout $end
$var wire 1 ^ datapath0|mux0|Mux6~0_combout $end
$var wire 1 _ datapath0|ALU0|Mux7~0_combout $end
$var wire 1 ` datapath0|ALU0|Mux7~1_combout $end
$var wire 1 a datapath0|ALU0|Mux7~2_combout $end
$var wire 1 b datapath0|mux0|Mux6~1_combout $end
$var wire 1 c datapath0|mux0|Mux6~2_combout $end
$var wire 1 d datapath0|mux0|Mux5~0_combout $end
$var wire 1 e datapath0|ALU0|Mux6~0_combout $end
$var wire 1 f datapath0|ALU0|Mux6~1_combout $end
$var wire 1 g datapath0|ALU0|Mux6~2_combout $end
$var wire 1 h datapath0|mux0|Mux5~1_combout $end
$var wire 1 i datapath0|mux0|Mux5~2_combout $end
$var wire 1 j datapath0|mux0|Mux5~3_combout $end
$var wire 1 k datapath0|mux0|Mux4~0_combout $end
$var wire 1 l datapath0|ALU0|Mux5~0_combout $end
$var wire 1 m datapath0|ALU0|Mux5~1_combout $end
$var wire 1 n datapath0|ALU0|Mux5~2_combout $end
$var wire 1 o datapath0|mux0|Mux4~1_combout $end
$var wire 1 p datapath0|mux0|Mux4~2_combout $end
$var wire 1 q datapath0|mux0|Mux3~0_combout $end
$var wire 1 r datapath0|mux0|Mux3~1_combout $end
$var wire 1 s datapath0|mux0|Mux3~2_combout $end
$var wire 1 t datapath0|mux0|Mux3~3_combout $end
$var wire 1 u datapath0|mux0|Mux2~8_combout $end
$var wire 1 v datapath0|mux0|Mux2~9_combout $end
$var wire 1 w datapath0|mux0|Mux2~10_combout $end
$var wire 1 x datapath0|mux0|Mux1~0_combout $end
$var wire 1 y datapath0|mux0|Mux1~1_combout $end
$var wire 1 z datapath0|mux0|Mux1~2_combout $end
$var wire 1 { datapath0|mux0|Mux1~3_combout $end
$var wire 1 | datapath0|mux0|Mux0~0_combout $end
$var wire 1 } datapath0|mux0|Mux0~1_combout $end
$var wire 1 ~ datapath0|mux0|Mux0~2_combout $end
$var wire 1 !! datapath0|ALU0|Mux2~5_combout $end
$var wire 1 "! datapath0|ALU0|Mux0~0_combout $end
$var wire 1 #! datapath0|ALU0|Mux0~1_combout $end
$var wire 1 $! controlador0|WideOr3~0_combout $end
$var wire 1 %! datapath0|mux0|Mux2~13_combout $end
$var wire 1 &! controlador0|datamem_write_enable~combout $end
$var wire 1 '! execute~combout $end
$var wire 1 (! clk~combout $end
$var wire 1 )! datapath0|clk0|counter~0_combout $end
$var wire 1 *! reset~combout $end
$var wire 1 +! datapath0|clk0|counter~regout $end
$var wire 1 ,! datapath0|clk0|temporal~0_combout $end
$var wire 1 -! datapath0|clk0|temporal~regout $end
$var wire 1 .! ~GND~combout $end
$var wire 1 /! datapath0|programcounter0|current[0]~8_combout $end
$var wire 1 0! datapath0|programcounter0|current[0]~9 $end
$var wire 1 1! datapath0|programcounter0|current[1]~12_combout $end
$var wire 1 2! datapath0|programcounter0|current[1]~13 $end
$var wire 1 3! datapath0|programcounter0|current[2]~14_combout $end
$var wire 1 4! datapath0|programcounter0|current[2]~15 $end
$var wire 1 5! datapath0|programcounter0|current[3]~16_combout $end
$var wire 1 6! datapath0|programcounter0|current[3]~17 $end
$var wire 1 7! datapath0|programcounter0|current[4]~18_combout $end
$var wire 1 8! datapath0|programcounter0|current[4]~19 $end
$var wire 1 9! datapath0|programcounter0|current[5]~20_combout $end
$var wire 1 :! datapath0|programcounter0|current[5]~21 $end
$var wire 1 ;! datapath0|programcounter0|current[6]~22_combout $end
$var wire 1 <! controlador0|Mux6~9_combout $end
$var wire 1 =! controlador0|state.SHL~regout $end
$var wire 1 >! controlador0|Mux6~10_combout $end
$var wire 1 ?! controlador0|state.SHR~regout $end
$var wire 1 @! controlador0|alucontrol~1_combout $end
$var wire 1 A! controlador0|Mux6~3_combout $end
$var wire 1 B! controlador0|state.SUB~regout $end
$var wire 1 C! controlador0|Mux6~5_combout $end
$var wire 1 D! controlador0|state.instAND~regout $end
$var wire 1 E! controlador0|Mux6~6_combout $end
$var wire 1 F! controlador0|state.instOR~regout $end
$var wire 1 G! controlador0|alucontrol~0_combout $end
$var wire 1 H! controlador0|Mux6~4_combout $end
$var wire 1 I! controlador0|state.instXOR~regout $end
$var wire 1 J! controlador0|WideOr10~6_combout $end
$var wire 1 K! controlador0|Mux6~11_combout $end
$var wire 1 L! controlador0|state.instNOT~regout $end
$var wire 1 M! controlador0|WideOr10~7_combout $end
$var wire 1 N! controlador0|alucontrol~2_combout $end
$var wire 1 O! datapath0|ALU0|Mux8~2_combout $end
$var wire 1 P! datapath0|mux0|Mux2~2_combout $end
$var wire 1 Q! controlador0|Mux6~2_combout $end
$var wire 1 R! controlador0|state.ADD~regout $end
$var wire 1 S! controlador0|regload[1]~2_combout $end
$var wire 1 T! controlador0|WideOr16~combout $end
$var wire 1 U! controlador0|Selector10~0_combout $end
$var wire 1 V! controlador0|Mux6~7_combout $end
$var wire 1 W! controlador0|state.MOV~regout $end
$var wire 1 X! controlador0|Mux6~8_combout $end
$var wire 1 Y! controlador0|state.ST~regout $end
$var wire 1 Z! controlador0|WideOr14~0_combout $end
$var wire 1 [! controlador0|WideOr14~1_combout $end
$var wire 1 \! controlador0|Mux6~12_combout $end
$var wire 1 ]! controlador0|state.instIN~regout $end
$var wire 1 ^! controlador0|Mux6~15_combout $end
$var wire 1 _! controlador0|state.MVI~regout $end
$var wire 1 `! controlador0|WideOr11~combout $end
$var wire 1 a! controlador0|Mux6~1_combout $end
$var wire 1 b! controlador0|state.instOUT~regout $end
$var wire 1 c! controlador0|Mux6~13_combout $end
$var wire 1 d! controlador0|state.JMP~regout $end
$var wire 1 e! controlador0|Mux6~14_combout $end
$var wire 1 f! controlador0|state.JZ~regout $end
$var wire 1 g! controlador0|WideOr7~1_combout $end
$var wire 1 h! controlador0|WideOr8~combout $end
$var wire 1 i! datapath0|mux0|Mux2~11_combout $end
$var wire 1 j! controlador0|WideOr10~combout $end
$var wire 1 k! datapath0|mux0|Mux2~12_combout $end
$var wire 1 l! controlador0|WideOr1~combout $end
$var wire 1 m! controlador0|Mux17~0_combout $end
$var wire 1 n! controlador0|Selector9~0_combout $end
$var wire 1 o! controlador0|Selector28~0_combout $end
$var wire 1 p! datapath0|mux1|Mux2~0_combout $end
$var wire 1 q! controlador0|Mux17~2_combout $end
$var wire 1 r! datapath0|mux1|Mux2~1_combout $end
$var wire 1 s! datapath0|mux0|Mux3~4_combout $end
$var wire 1 t! datapath0|mux0|Mux3~5_combout $end
$var wire 1 u! controlador0|Mux17~1_combout $end
$var wire 1 v! datapath0|mux1|Mux3~0_combout $end
$var wire 1 w! datapath0|mux1|Mux3~1_combout $end
$var wire 1 x! datapath0|mux0|Mux4~3_combout $end
$var wire 1 y! datapath0|mux0|Mux4~4_combout $end
$var wire 1 z! datapath0|mux1|Mux4~0_combout $end
$var wire 1 {! datapath0|mux1|Mux4~1_combout $end
$var wire 1 |! datapath0|mux0|Mux5~4_combout $end
$var wire 1 }! datapath0|mux0|Mux5~5_combout $end
$var wire 1 ~! datapath0|mux1|Mux5~0_combout $end
$var wire 1 !" datapath0|mux1|Mux5~1_combout $end
$var wire 1 "" datapath0|mux0|Mux6~3_combout $end
$var wire 1 #" datapath0|mux0|Mux6~4_combout $end
$var wire 1 $" datapath0|mux1|Mux6~0_combout $end
$var wire 1 %" datapath0|mux1|Mux6~1_combout $end
$var wire 1 &" datapath0|mux0|Mux7~4_combout $end
$var wire 1 '" datapath0|mux0|Mux7~5_combout $end
$var wire 1 (" datapath0|mux1|Mux7~0_combout $end
$var wire 1 )" datapath0|mux1|Mux7~1_combout $end
$var wire 1 *" datapath0|ALU0|Add1~1 $end
$var wire 1 +" datapath0|ALU0|Add1~3 $end
$var wire 1 ," datapath0|ALU0|Add1~5 $end
$var wire 1 -" datapath0|ALU0|Add1~7 $end
$var wire 1 ." datapath0|ALU0|Add1~9 $end
$var wire 1 /" datapath0|ALU0|Add1~10_combout $end
$var wire 1 0" controlador0|WideOr22~0_combout $end
$var wire 1 1" controlador0|Selector5~0_combout $end
$var wire 1 2" controlador0|WideOr12~0_combout $end
$var wire 1 3" datapath0|programcounter0|current[6]~23 $end
$var wire 1 4" datapath0|programcounter0|current[7]~24_combout $end
$var wire 1 5" controlador0|state.start~regout $end
$var wire 1 6" controlador0|Selector6~0_combout $end
$var wire 1 7" controlador0|state.busca_OUT~regout $end
$var wire 1 8" controlador0|Selector6~1_combout $end
$var wire 1 9" controlador0|Selector6~2_combout $end
$var wire 1 :" controlador0|state.busca~regout $end
$var wire 1 ;" controlador0|WideOr7~0_combout $end
$var wire 1 <" datapath0|programcounter0|current[0]~10_combout $end
$var wire 1 =" datapath0|programcounter0|current[0]~11_combout $end
$var wire 1 >" datapath0|mux0|Mux0~3_combout $end
$var wire 1 ?" datapath0|mux0|Mux0~4_combout $end
$var wire 1 @" controlador0|Selector7~0_combout $end
$var wire 1 A" datapath0|mux2|Mux0~0_combout $end
$var wire 1 B" datapath0|mux2|Mux0~1_combout $end
$var wire 1 C" datapath0|mux0|Mux1~4_combout $end
$var wire 1 D" datapath0|mux0|Mux1~5_combout $end
$var wire 1 E" datapath0|mux2|Mux1~0_combout $end
$var wire 1 F" datapath0|mux2|Mux1~1_combout $end
$var wire 1 G" datapath0|mux2|Mux2~0_combout $end
$var wire 1 H" datapath0|mux2|Mux2~1_combout $end
$var wire 1 I" datapath0|mux2|Mux3~0_combout $end
$var wire 1 J" datapath0|mux2|Mux3~1_combout $end
$var wire 1 K" datapath0|mux2|Mux4~0_combout $end
$var wire 1 L" datapath0|mux2|Mux4~1_combout $end
$var wire 1 M" datapath0|mux2|Mux5~0_combout $end
$var wire 1 N" datapath0|mux2|Mux5~1_combout $end
$var wire 1 O" datapath0|mux2|Mux6~0_combout $end
$var wire 1 P" datapath0|mux2|Mux6~1_combout $end
$var wire 1 Q" datapath0|mux2|Mux7~0_combout $end
$var wire 1 R" datapath0|mux2|Mux7~1_combout $end
$var wire 1 S" datapath0|ALU0|LessThan0~1_cout $end
$var wire 1 T" datapath0|ALU0|LessThan0~3_cout $end
$var wire 1 U" datapath0|ALU0|LessThan0~5_cout $end
$var wire 1 V" datapath0|ALU0|LessThan0~7_cout $end
$var wire 1 W" datapath0|ALU0|LessThan0~9_cout $end
$var wire 1 X" datapath0|ALU0|LessThan0~11_cout $end
$var wire 1 Y" datapath0|ALU0|LessThan0~13_cout $end
$var wire 1 Z" datapath0|ALU0|LessThan0~14_combout $end
$var wire 1 [" datapath0|ALU0|Mux2~1_combout $end
$var wire 1 \" datapath0|ALU0|Mux2~0_combout $end
$var wire 1 ]" datapath0|ALU0|Add0~1 $end
$var wire 1 ^" datapath0|ALU0|Add0~3 $end
$var wire 1 _" datapath0|ALU0|Add0~5 $end
$var wire 1 `" datapath0|ALU0|Add0~7 $end
$var wire 1 a" datapath0|ALU0|Add0~9 $end
$var wire 1 b" datapath0|ALU0|Add0~10_combout $end
$var wire 1 c" datapath0|ALU0|Mux4~0_combout $end
$var wire 1 d" datapath0|ALU0|Mux4~1_combout $end
$var wire 1 e" datapath0|ALU0|Mux4~2_combout $end
$var wire 1 f" datapath0|mux1|Mux1~0_combout $end
$var wire 1 g" datapath0|mux1|Mux1~1_combout $end
$var wire 1 h" datapath0|ALU0|Add0~11 $end
$var wire 1 i" datapath0|ALU0|Add0~12_combout $end
$var wire 1 j" datapath0|ALU0|Mux3~0_combout $end
$var wire 1 k" datapath0|ALU0|Add1~11 $end
$var wire 1 l" datapath0|ALU0|Add1~12_combout $end
$var wire 1 m" datapath0|ALU0|Mux3~1_combout $end
$var wire 1 n" datapath0|ALU0|Mux3~2_combout $end
$var wire 1 o" datapath0|mux1|Mux0~0_combout $end
$var wire 1 p" datapath0|mux1|Mux0~1_combout $end
$var wire 1 q" datapath0|ALU0|Add1~13 $end
$var wire 1 r" datapath0|ALU0|Add1~14_combout $end
$var wire 1 s" datapath0|ALU0|Add0~13 $end
$var wire 1 t" datapath0|ALU0|Add0~14_combout $end
$var wire 1 u" datapath0|ALU0|Mux2~2_combout $end
$var wire 1 v" datapath0|ALU0|Mux2~3_combout $end
$var wire 1 w" datapath0|ALU0|Mux2~4_combout $end
$var wire 1 x" datapath0|ALU0|Mux0~2_combout $end
$var wire 1 y" datapath0|ALU0|Add1~0_combout $end
$var wire 1 z" datapath0|ALU0|Mux9~0_combout $end
$var wire 1 {" datapath0|ALU0|Mux9~1_combout $end
$var wire 1 |" datapath0|ALU0|Mux9~2_combout $end
$var wire 1 }" datapath0|ALU0|Add1~15 $end
$var wire 1 ~" datapath0|ALU0|Add1~16_combout $end
$var wire 1 !# datapath0|ALU0|Mux1~0_combout $end
$var wire 1 "# datapath0|ALU0|Add0~15 $end
$var wire 1 ## datapath0|ALU0|Add0~16_combout $end
$var wire 1 $# datapath0|ALU0|Mux1~1_combout $end
$var wire 1 %# datapath0|ALU0|Mux1~2_combout $end
$var wire 1 &# datapath0|ALU0|Mux0~3_combout $end
$var wire 1 '# datapath0|ALU0|Mux19~0_combout $end
$var wire 1 (# datapath0|ALU0|zero_sign~combout $end
$var wire 1 )# datapath0|regzero|out0~regout $end
$var wire 1 *# controlador0|Selector19~0_combout $end
$var wire 1 +# controlador0|Mux6~0_combout $end
$var wire 1 ,# controlador0|state.LD~regout $end
$var wire 1 -# controlador0|state.busca_LD~regout $end
$var wire 1 .# controlador0|next_state.decode~0_combout $end
$var wire 1 /# controlador0|state.decode~regout $end
$var wire 1 0# controlador0|WideNor0~0_combout $end
$var wire 1 1# controlador0|WideOr2~combout $end
$var wire 1 2# datapath0|ALU0|Mux18~1_combout $end
$var wire 1 3# datapath0|regcarryflag|out0~regout $end
$var wire 1 4# controlador0|alucontrol [3] $end
$var wire 1 5# controlador0|alucontrol [2] $end
$var wire 1 6# controlador0|alucontrol [1] $end
$var wire 1 7# controlador0|alucontrol [0] $end
$var wire 1 8# datapath0|reg_prev_isnt|out0 [7] $end
$var wire 1 9# datapath0|reg_prev_isnt|out0 [6] $end
$var wire 1 :# datapath0|reg_prev_isnt|out0 [5] $end
$var wire 1 ;# datapath0|reg_prev_isnt|out0 [4] $end
$var wire 1 <# datapath0|reg_prev_isnt|out0 [3] $end
$var wire 1 =# datapath0|reg_prev_isnt|out0 [2] $end
$var wire 1 ># datapath0|reg_prev_isnt|out0 [1] $end
$var wire 1 ?# datapath0|reg_prev_isnt|out0 [0] $end
$var wire 1 @# datapath0|progmem0|altsyncram_component|auto_generated|q_a [7] $end
$var wire 1 A# datapath0|progmem0|altsyncram_component|auto_generated|q_a [6] $end
$var wire 1 B# datapath0|progmem0|altsyncram_component|auto_generated|q_a [5] $end
$var wire 1 C# datapath0|progmem0|altsyncram_component|auto_generated|q_a [4] $end
$var wire 1 D# datapath0|progmem0|altsyncram_component|auto_generated|q_a [3] $end
$var wire 1 E# datapath0|progmem0|altsyncram_component|auto_generated|q_a [2] $end
$var wire 1 F# datapath0|progmem0|altsyncram_component|auto_generated|q_a [1] $end
$var wire 1 G# datapath0|progmem0|altsyncram_component|auto_generated|q_a [0] $end
$var wire 1 H# controlador0|regload [7] $end
$var wire 1 I# controlador0|regload [6] $end
$var wire 1 J# controlador0|regload [5] $end
$var wire 1 K# controlador0|regload [4] $end
$var wire 1 L# controlador0|regload [3] $end
$var wire 1 M# controlador0|regload [2] $end
$var wire 1 N# controlador0|regload [1] $end
$var wire 1 O# controlador0|regload [0] $end
$var wire 1 P# datapath0|reg01|out0 [7] $end
$var wire 1 Q# datapath0|reg01|out0 [6] $end
$var wire 1 R# datapath0|reg01|out0 [5] $end
$var wire 1 S# datapath0|reg01|out0 [4] $end
$var wire 1 T# datapath0|reg01|out0 [3] $end
$var wire 1 U# datapath0|reg01|out0 [2] $end
$var wire 1 V# datapath0|reg01|out0 [1] $end
$var wire 1 W# datapath0|reg01|out0 [0] $end
$var wire 1 X# controlador0|mux2select [1] $end
$var wire 1 Y# controlador0|mux2select [0] $end
$var wire 1 Z# datapath0|reg10|out0 [7] $end
$var wire 1 [# datapath0|reg10|out0 [6] $end
$var wire 1 \# datapath0|reg10|out0 [5] $end
$var wire 1 ]# datapath0|reg10|out0 [4] $end
$var wire 1 ^# datapath0|reg10|out0 [3] $end
$var wire 1 _# datapath0|reg10|out0 [2] $end
$var wire 1 `# datapath0|reg10|out0 [1] $end
$var wire 1 a# datapath0|reg10|out0 [0] $end
$var wire 1 b# controlador0|mux0select [2] $end
$var wire 1 c# controlador0|mux0select [1] $end
$var wire 1 d# controlador0|mux0select [0] $end
$var wire 1 e# datapath0|reout|out0 [7] $end
$var wire 1 f# datapath0|reout|out0 [6] $end
$var wire 1 g# datapath0|reout|out0 [5] $end
$var wire 1 h# datapath0|reout|out0 [4] $end
$var wire 1 i# datapath0|reout|out0 [3] $end
$var wire 1 j# datapath0|reout|out0 [2] $end
$var wire 1 k# datapath0|reout|out0 [1] $end
$var wire 1 l# datapath0|reout|out0 [0] $end
$var wire 1 m# datapath0|datamem0|altsyncram_component|auto_generated|q_a [7] $end
$var wire 1 n# datapath0|datamem0|altsyncram_component|auto_generated|q_a [6] $end
$var wire 1 o# datapath0|datamem0|altsyncram_component|auto_generated|q_a [5] $end
$var wire 1 p# datapath0|datamem0|altsyncram_component|auto_generated|q_a [4] $end
$var wire 1 q# datapath0|datamem0|altsyncram_component|auto_generated|q_a [3] $end
$var wire 1 r# datapath0|datamem0|altsyncram_component|auto_generated|q_a [2] $end
$var wire 1 s# datapath0|datamem0|altsyncram_component|auto_generated|q_a [1] $end
$var wire 1 t# datapath0|datamem0|altsyncram_component|auto_generated|q_a [0] $end
$var wire 1 u# controlador0|mux1select [1] $end
$var wire 1 v# controlador0|mux1select [0] $end
$var wire 1 w# datapath0|reg11|out0 [7] $end
$var wire 1 x# datapath0|reg11|out0 [6] $end
$var wire 1 y# datapath0|reg11|out0 [5] $end
$var wire 1 z# datapath0|reg11|out0 [4] $end
$var wire 1 {# datapath0|reg11|out0 [3] $end
$var wire 1 |# datapath0|reg11|out0 [2] $end
$var wire 1 }# datapath0|reg11|out0 [1] $end
$var wire 1 ~# datapath0|reg11|out0 [0] $end
$var wire 1 !$ datapath0|programcounter0|current [7] $end
$var wire 1 "$ datapath0|programcounter0|current [6] $end
$var wire 1 #$ datapath0|programcounter0|current [5] $end
$var wire 1 $$ datapath0|programcounter0|current [4] $end
$var wire 1 %$ datapath0|programcounter0|current [3] $end
$var wire 1 &$ datapath0|programcounter0|current [2] $end
$var wire 1 '$ datapath0|programcounter0|current [1] $end
$var wire 1 ($ datapath0|programcounter0|current [0] $end
$var wire 1 )$ datapath0|reg00|out0 [7] $end
$var wire 1 *$ datapath0|reg00|out0 [6] $end
$var wire 1 +$ datapath0|reg00|out0 [5] $end
$var wire 1 ,$ datapath0|reg00|out0 [4] $end
$var wire 1 -$ datapath0|reg00|out0 [3] $end
$var wire 1 .$ datapath0|reg00|out0 [2] $end
$var wire 1 /$ datapath0|reg00|out0 [1] $end
$var wire 1 0$ datapath0|reg00|out0 [0] $end
$var wire 1 1$ datapath0|progmem0|altsyncram_component|auto_generated|ram_block1a7_PORTADATAOUT_bus [0] $end
$var wire 1 2$ datapath0|progmem0|altsyncram_component|auto_generated|ram_block1a6_PORTADATAOUT_bus [0] $end
$var wire 1 3$ datapath0|progmem0|altsyncram_component|auto_generated|ram_block1a5_PORTADATAOUT_bus [0] $end
$var wire 1 4$ datapath0|progmem0|altsyncram_component|auto_generated|ram_block1a4_PORTADATAOUT_bus [0] $end
$var wire 1 5$ datapath0|datamem0|altsyncram_component|auto_generated|ram_block1a0_PORTADATAOUT_bus [0] $end
$var wire 1 6$ datapath0|progmem0|altsyncram_component|auto_generated|ram_block1a0_PORTADATAOUT_bus [0] $end
$var wire 1 7$ datapath0|datamem0|altsyncram_component|auto_generated|ram_block1a1_PORTADATAOUT_bus [0] $end
$var wire 1 8$ datapath0|progmem0|altsyncram_component|auto_generated|ram_block1a1_PORTADATAOUT_bus [0] $end
$var wire 1 9$ datapath0|datamem0|altsyncram_component|auto_generated|ram_block1a2_PORTADATAOUT_bus [0] $end
$var wire 1 :$ datapath0|progmem0|altsyncram_component|auto_generated|ram_block1a2_PORTADATAOUT_bus [0] $end
$var wire 1 ;$ datapath0|datamem0|altsyncram_component|auto_generated|ram_block1a3_PORTADATAOUT_bus [0] $end
$var wire 1 <$ datapath0|progmem0|altsyncram_component|auto_generated|ram_block1a3_PORTADATAOUT_bus [0] $end
$var wire 1 =$ datapath0|datamem0|altsyncram_component|auto_generated|ram_block1a4_PORTADATAOUT_bus [0] $end
$var wire 1 >$ datapath0|datamem0|altsyncram_component|auto_generated|ram_block1a5_PORTADATAOUT_bus [0] $end
$var wire 1 ?$ datapath0|datamem0|altsyncram_component|auto_generated|ram_block1a6_PORTADATAOUT_bus [0] $end
$var wire 1 @$ datapath0|datamem0|altsyncram_component|auto_generated|ram_block1a7_PORTADATAOUT_bus [0] $end
$upscope $end
$upscope $end
$enddefinitions $end
#0
$dumpvars
0!
1"
b0 #
1$
0%
0&
0.
0-
0,
0+
0*
0)
0(
0'
0/
x0
01
12
x3
14
15
16
x7
x8
x9
x:
x;
x<
x=
x>
x?
x@
xA
xB
xC
xD
xE
xF
xG
xH
xI
xJ
xK
xL
xM
xN
xO
xP
xQ
xR
xS
xT
xU
xV
xW
xX
xY
xZ
x[
x\
x]
x^
x_
x`
xa
xb
xc
xd
xe
xf
xg
xh
xi
xj
xk
xl
xm
xn
xo
xp
xq
xr
xs
xt
xu
xv
xw
xx
xy
xz
x{
x|
x}
x~
x!!
x"!
x#!
1$!
x%!
0&!
1'!
0(!
1)!
1*!
0+!
0,!
0-!
0.!
1/!
00!
01!
12!
03!
04!
05!
16!
07!
08!
09!
1:!
0;!
0<!
0=!
0>!
0?!
1@!
0A!
0B!
0C!
0D!
0E!
0F!
1G!
0H!
0I!
1J!
0K!
0L!
1M!
0N!
xO!
xP!
0Q!
0R!
0S!
0T!
0U!
0V!
0W!
0X!
0Y!
1Z!
0[!
0\!
0]!
0^!
0_!
0`!
0a!
0b!
0c!
0d!
0e!
0f!
0g!
1h!
0i!
0j!
xk!
1l!
0m!
0n!
1o!
xp!
0q!
xr!
0s!
xt!
0u!
xv!
xw!
0x!
xy!
xz!
x{!
0|!
x}!
x~!
x!"
0""
x#"
x$"
x%"
0&"
x'"
x("
x)"
x*"
x+"
x,"
x-"
x."
x/"
00"
01"
02"
03"
04"
05"
06"
07"
08"
19"
0:"
0;"
0<"
0="
0>"
x?"
0@"
xA"
xB"
0C"
xD"
xE"
xF"
xG"
xH"
xI"
xJ"
xK"
xL"
xM"
xN"
xO"
xP"
xQ"
xR"
xS"
xT"
xU"
xV"
xW"
xX"
xY"
xZ"
x["
x\"
x]"
x^"
x_"
x`"
xa"
xb"
xc"
xd"
xe"
xf"
xg"
xh"
xi"
xj"
xk"
xl"
xm"
xn"
xo"
xp"
xq"
xr"
xs"
xt"
xu"
xv"
xw"
xx"
xy"
xz"
x{"
x|"
x}"
x~"
x!#
x"#
x##
x$#
x%#
x&#
x'#
x(#
0)#
0*#
1+#
0,#
0-#
0.#
0/#
10#
11#
x2#
03#
x7#
x6#
x5#
x4#
0?#
0>#
0=#
0<#
z;#
z:#
z9#
z8#
0G#
0F#
0E#
0D#
0C#
0B#
0A#
0@#
zO#
zN#
zM#
zL#
0K#
0J#
0I#
0H#
0W#
0V#
0U#
0T#
0S#
0R#
0Q#
0P#
xY#
xX#
0a#
0`#
0_#
0^#
0]#
0\#
0[#
0Z#
xd#
xc#
xb#
0l#
0k#
0j#
0i#
0h#
0g#
0f#
0e#
0t#
0s#
0r#
0q#
0p#
0o#
0n#
0m#
xv#
xu#
0~#
0}#
0|#
0{#
0z#
0y#
0x#
0w#
0($
0'$
0&$
0%$
0$$
0#$
0"$
0!$
00$
0/$
0.$
0-$
0,$
0+$
0*$
0)$
01$
02$
03$
04$
05$
06$
07$
08$
09$
0:$
0;$
0<$
0=$
0>$
0?$
0@$
$end
#250
1!
1(!
00
1+!
1,!
0)!
#500
0!
0(!
10
#750
1!
1(!
00
1-!
0+!
1)!
1:"
15"
00#
1.#
18"
01#
0$!
11#
1="
09"
1&
0&
#751
14$
13$
x@$
x?$
x>$
x=$
x;$
x9$
x7$
x5$
1C#
1B#
xm#
xn#
xo#
xp#
xq#
xr#
xs#
xt#
0+#
xs!
1^!
xi!
x>"
xC"
xx!
x|!
x""
x&"
#1000
0!
0(!
10
#1250
1!
1(!
00
1+!
0,!
0)!
#1500
0!
0(!
10
#1750
1!
1(!
00
0-!
0+!
1)!
#2000
0!
0(!
10
#2250
1!
1(!
00
1+!
1,!
0)!
#2500
0!
0(!
10
#2750
1!
1(!
00
1-!
0+!
1)!
1/#
1($
0:"
16"
1$!
10!
0/!
10#
0.#
08"
11!
0="
#3000
0!
0(!
10
#3250
1!
1(!
00
1+!
0,!
0)!
#3500
0!
0(!
10
#3750
1!
1(!
00
0-!
0+!
1)!
#4000
0!
0(!
10
#4250
1!
1(!
00
1+!
1,!
0)!
#4500
0!
0(!
10
#4750
1!
1(!
00
1-!
0+!
1)!
0/#
1_!
01#
1;"
06"
0$!
1`!
1<"
1g!
19"
1&
1="
0l!
0h!
0o!
0b#
1c#
0d#
1H#
1%!
0Z
0X
0C"
0>"
0&"
0""
0|!
0x!
1s!
1i!
0[
0D"
0?"
0'"
0#"
0}!
0y!
1t!
1k!
#4751
04$
03$
0C#
0B#
1+#
0s!
0^!
0i!
0t!
0k!
#5000
0!
0(!
10
#5250
1!
1(!
00
1+!
0,!
0)!
#5500
0!
0(!
10
#5750
1!
1(!
00
0-!
0+!
1)!
#6000
0!
0(!
10
#6250
1!
1(!
00
1+!
1,!
0)!
#6500
0!
0(!
10
#6750
1!
1(!
00
1-!
0+!
1)!
0($
1'$
1:"
0_!
00!
1/!
02!
01!
00#
1.#
0;"
18"
0`!
12!
11!
13!
11#
0<"
0g!
09"
1d#
03!
1l!
1h!
xC"
x>"
x&"
x""
x|!
xx!
xs!
xi!
0&
1o!
xD"
x?"
x'"
x#"
x}!
xy!
xt!
xk!
0H#
#7000
0!
0(!
10
#7250
1!
1(!
00
1+!
0,!
0)!
#7500
0!
0(!
10
#7750
1!
1(!
00
0-!
0+!
1)!
#8000
0!
0(!
10
#8250
1!
1(!
00
1+!
1,!
0)!
#8500
0!
0(!
10
#8750
1!
1(!
00
1-!
0+!
1)!
1/#
1($
0:"
16"
1$!
10!
0/!
10#
0.#
08"
02!
01!
0="
13!
#8751
12$
14$
11$
1A#
1C#
1@#
0+#
1a!
