quartus/simulation/qsim/microprocessador.msim.vcd
$comment
	File created using the following command:
		vcd file microprocessador.msim.vcd -direction
$end
$date
	Fri May 19 16:56:59 2017
$end
$version
	ModelSim Version 10.1d
$end
$timescale
	1ps
$end
$scope module microprocessador_vlg_vec_tst $end
$var reg 1 ! clk $end
$var reg 1 " execute $end
$var reg 8 # externaldata [7:0] $end
$var reg 1 $ reset $end
$var wire 1 % carryflag $end
$var wire 1 & finished $end
$var wire 1 ' saida [7] $end
$var wire 1 ( saida [6] $end
$var wire 1 ) saida [5] $end
$var wire 1 * saida [4] $end
$var wire 1 + saida [3] $end
$var wire 1 , saida [2] $end
$var wire 1 - saida [1] $end
$var wire 1 . saida [0] $end
$var wire 1 / sampler $end
$scope module i1 $end
$var wire 1 0 gnd $end
$var wire 1 1 vcc $end
$var wire 1 2 unknown $end
$var tri1 1 3 devclrn $end
$var tri1 1 4 devpor $end
$var tri1 1 5 devoe $end
$var wire 1 6 datapath0|ALU0|Add1~0_combout $end
$var wire 1 7 datapath0|ALU0|Add1~2_combout $end
$var wire 1 8 datapath0|ALU0|Add1~4_combout $end
$var wire 1 9 datapath0|ALU0|Add1~6_combout $end
$var wire 1 : datapath0|ALU0|Add1~8_combout $end
$var wire 1 ; datapath0|ALU0|Add1~10_combout $end
$var wire 1 < datapath0|ALU0|Add1~12_combout $end
$var wire 1 = datapath0|ALU0|Add0~14_combout $end
$var wire 1 > datapath0|regcarryflag|out0~0_combout $end
$var wire 1 ? datapath0|ALU0|Add0~18_combout $end
$var wire 1 @ datapath0|ALU0|Add0~20_combout $end
$var wire 1 A datapath0|ALU0|Add0~22_combout $end
$var wire 1 B datapath0|ALU0|Add0~24_combout $end
$var wire 1 C datapath0|ALU0|Add0~26_combout $end
$var wire 1 D datapath0|ALU0|Add0~28_combout $end
$var wire 1 E datapath0|ALU0|Add0~30_combout $end
$var wire 1 F datapath0|ALU0|Add0~31_combout $end
$var wire 1 G controlador0|WideOr2~0_combout $end
$var wire 1 H controlador0|datamem_write_enable~combout $end
$var wire 1 I reset~combout $end
$var wire 1 J controlador0|state.start~regout $end
$var wire 1 K clk~combout $end
$var wire 1 L ~GND~combout $end
$var wire 1 M datapath0|programcounter0|current[0]~8_combout $end
$var wire 1 N datapath0|programcounter0|current[0]~9 $end
$var wire 1 O datapath0|programcounter0|current[1]~10_combout $end
$var wire 1 P datapath0|programcounter0|current[1]~11 $end
$var wire 1 Q datapath0|programcounter0|current[2]~12_combout $end
$var wire 1 R datapath0|programcounter0|current[2]~13 $end
$var wire 1 S datapath0|programcounter0|current[3]~14_combout $end
$var wire 1 T datapath0|programcounter0|current[3]~15 $end
$var wire 1 U datapath0|programcounter0|current[4]~16_combout $end
$var wire 1 V datapath0|programcounter0|current[4]~17 $end
$var wire 1 W datapath0|programcounter0|current[5]~18_combout $end
$var wire 1 X datapath0|programcounter0|current[5]~19 $end
$var wire 1 Y datapath0|programcounter0|current[6]~20_combout $end
$var wire 1 Z datapath0|programcounter0|current[6]~21 $end
$var wire 1 [ datapath0|programcounter0|current[7]~22_combout $end
$var wire 1 \ controlador0|Mux7~9_combout $end
$var wire 1 ] execute~combout $end
$var wire 1 ^ controlador0|Selector2~0_combout $end
$var wire 1 _ controlador0|state.decode~regout $end
$var wire 1 ` controlador0|state.JMP~regout $end
$var wire 1 a controlador0|WideOr4~0_combout $end
$var wire 1 b controlador0|Selector2~1_combout $end
$var wire 1 c controlador0|state.busca~regout $end
$var wire 1 d controlador0|WideOr1~0_combout $end
$var wire 1 e controlador0|Mux7~6_combout $end
$var wire 1 f controlador0|state.SHL~regout $end
$var wire 1 g controlador0|Mux7~7_combout $end
$var wire 1 h controlador0|state.SHR~regout $end
$var wire 1 i controlador0|Mux7~8_combout $end
$var wire 1 j controlador0|state.ST~regout $end
$var wire 1 k controlador0|WideOr13~0_combout $end
$var wire 1 l controlador0|Mux7~0_combout $end
$var wire 1 m controlador0|state.instOUT~regout $end
$var wire 1 n controlador0|Selector5~0_combout $end
$var wire 1 o controlador0|Selector5~1_combout $end
$var wire 1 p controlador0|Mux7~3_combout $end
$var wire 1 q controlador0|state.MOV~regout $end
$var wire 1 r controlador0|Mux7~2_combout $end
$var wire 1 s controlador0|state.SUB~regout $end
$var wire 1 t controlador0|WideOr8~0_combout $end
$var wire 1 u controlador0|WideOr12~2_combout $end
$var wire 1 v controlador0|Selector3~0_combout $end
$var wire 1 w controlador0|Mux7~5_combout $end
$var wire 1 x controlador0|state.LD~regout $end
$var wire 1 y controlador0|WideOr10~0_combout $end
$var wire 1 z controlador0|Mux7~4_combout $end
$var wire 1 { controlador0|state.MVI~regout $end
$var wire 1 | controlador0|WideOr0~0_combout $end
$var wire 1 } controlador0|Mux15~0_combout $end
$var wire 1 ~ controlador0|Selector1~0_combout $end
$var wire 1 !! datapath0|reg00|out0[7]~0_combout $end
$var wire 1 "! datapath0|mux2|Mux7~0_combout $end
$var wire 1 #! controlador0|Mux15~2_combout $end
$var wire 1 $! datapath0|mux2|Mux7~1_combout $end
$var wire 1 %! controlador0|Selector6~0_combout $end
$var wire 1 &! controlador0|Selector6~1_combout $end
$var wire 1 '! datapath0|mux1|Mux6~0_combout $end
$var wire 1 (! datapath0|mux1|Mux6~1_combout $end
$var wire 1 )! controlador0|Mux15~1_combout $end
$var wire 1 *! datapath0|mux1|Mux5~0_combout $end
$var wire 1 +! datapath0|mux1|Mux5~1_combout $end
$var wire 1 ,! datapath0|mux1|Mux4~0_combout $end
$var wire 1 -! datapath0|mux1|Mux4~1_combout $end
$var wire 1 .! datapath0|mux1|Mux3~0_combout $end
$var wire 1 /! datapath0|mux1|Mux3~1_combout $end
$var wire 1 0! controlador0|Mux7~10_combout $end
$var wire 1 1! controlador0|state.instIN~regout $end
$var wire 1 2! controlador0|Mux7~11_combout $end
$var wire 1 3! controlador0|state.JZ~regout $end
$var wire 1 4! controlador0|WideOr6~0_combout $end
$var wire 1 5! controlador0|WideOr6~combout $end
$var wire 1 6! datapath0|mux0|Mux1~0_combout $end
$var wire 1 7! datapath0|ALU0|Add2~1 $end
$var wire 1 8! datapath0|ALU0|Add2~3 $end
$var wire 1 9! datapath0|ALU0|Add2~5 $end
$var wire 1 :! datapath0|ALU0|Add2~7 $end
$var wire 1 ;! datapath0|ALU0|Add2~8_combout $end
$var wire 1 <! controlador0|alucontrol~0_combout $end
$var wire 1 =! datapath0|mux0|Mux1~1_combout $end
$var wire 1 >! datapath0|ALU0|Add0~1 $end
$var wire 1 ?! datapath0|ALU0|Add0~3 $end
$var wire 1 @! datapath0|ALU0|Add0~5 $end
$var wire 1 A! datapath0|ALU0|Add0~7 $end
$var wire 1 B! datapath0|ALU0|Add0~8_combout $end
$var wire 1 C! controlador0|WideOr13~1_combout $end
$var wire 1 D! datapath0|ALU0|Add0~25_combout $end
$var wire 1 E! datapath0|mux1|Mux0~0_combout $end
$var wire 1 F! datapath0|mux1|Mux0~1_combout $end
$var wire 1 G! datapath0|ALU0|Add2~9 $end
$var wire 1 H! datapath0|ALU0|Add2~10_combout $end
$var wire 1 I! datapath0|ALU0|Add0~9 $end
$var wire 1 J! datapath0|ALU0|Add0~10_combout $end
$var wire 1 K! datapath0|ALU0|Add0~27_combout $end
$var wire 1 L! datapath0|mux0|Mux2~0_combout $end
$var wire 1 M! datapath0|mux0|Mux2~1_combout $end
$var wire 1 N! controlador0|WideOr9~combout $end
$var wire 1 O! controlador0|WideOr8~combout $end
$var wire 1 P! datapath0|mux0|Mux1~3_combout $end
$var wire 1 Q! datapath0|mux0|Mux1~4_combout $end
$var wire 1 R! datapath0|mux0|Mux2~2_combout $end
$var wire 1 S! datapath0|mux0|Mux2~combout $end
$var wire 1 T! datapath0|mux1|Mux2~0_combout $end
$var wire 1 U! datapath0|mux1|Mux2~1_combout $end
$var wire 1 V! datapath0|ALU0|Add2~11 $end
$var wire 1 W! datapath0|ALU0|Add2~12_combout $end
$var wire 1 X! datapath0|ALU0|Add0~11 $end
$var wire 1 Y! datapath0|ALU0|Add0~12_combout $end
$var wire 1 Z! datapath0|ALU0|Add0~29_combout $end
$var wire 1 [! datapath0|mux0|Mux1~5_combout $end
$var wire 1 \! datapath0|mux0|Mux1~6_combout $end
$var wire 1 ]! datapath0|mux0|Mux1~7_combout $end
$var wire 1 ^! datapath0|mux0|Mux1~combout $end
$var wire 1 _! datapath0|mux1|Mux1~0_combout $end
$var wire 1 `! datapath0|mux1|Mux1~1_combout $end
$var wire 1 a! datapath0|ALU0|Add0~13 $end
$var wire 1 b! datapath0|ALU0|Add0~15 $end
$var wire 1 c! datapath0|ALU0|Add0~16_combout $end
$var wire 1 d! datapath0|ALU0|Mux20~0_combout $end
$var wire 1 e! datapath0|ALU0|Add2~13 $end
$var wire 1 f! datapath0|ALU0|Add2~14_combout $end
$var wire 1 g! datapath0|ALU0|Add1~1 $end
$var wire 1 h! datapath0|ALU0|Add1~3 $end
$var wire 1 i! datapath0|ALU0|Add1~5 $end
$var wire 1 j! datapath0|ALU0|Add1~7 $end
$var wire 1 k! datapath0|ALU0|Add1~9 $end
$var wire 1 l! datapath0|ALU0|Add1~11 $end
$var wire 1 m! datapath0|ALU0|Add1~13 $end
$var wire 1 n! datapath0|ALU0|Add1~14_combout $end
$var wire 1 o! datapath0|mux0|Mux0~0_combout $end
$var wire 1 p! datapath0|mux0|Mux0~1_combout $end
$var wire 1 q! datapath0|mux0|Mux0~2_combout $end
$var wire 1 r! datapath0|mux0|Mux0~combout $end
$var wire 1 s! datapath0|mux2|Mux0~0_combout $end
$var wire 1 t! datapath0|mux2|Mux0~1_combout $end
$var wire 1 u! datapath0|mux2|Mux1~0_combout $end
$var wire 1 v! datapath0|mux2|Mux1~1_combout $end
$var wire 1 w! datapath0|mux2|Mux2~0_combout $end
$var wire 1 x! datapath0|mux2|Mux2~1_combout $end
$var wire 1 y! datapath0|ALU0|LessThan0~1_cout $end
$var wire 1 z! datapath0|ALU0|LessThan0~3_cout $end
$var wire 1 {! datapath0|ALU0|LessThan0~5_cout $end
$var wire 1 |! datapath0|ALU0|LessThan0~7_cout $end
$var wire 1 }! datapath0|ALU0|LessThan0~9_cout $end
$var wire 1 ~! datapath0|ALU0|LessThan0~11_cout $end
$var wire 1 !" datapath0|ALU0|LessThan0~13_cout $end
$var wire 1 "" datapath0|ALU0|LessThan0~14_combout $end
$var wire 1 #" datapath0|mux0|Mux1~2_combout $end
$var wire 1 $" datapath0|mux0|Mux3~0_combout $end
$var wire 1 %" datapath0|mux0|Mux3~1_combout $end
$var wire 1 &" datapath0|mux0|Mux3~2_combout $end
$var wire 1 '" datapath0|mux0|Mux3~combout $end
$var wire 1 (" datapath0|mux2|Mux3~0_combout $end
$var wire 1 )" datapath0|mux2|Mux3~1_combout $end
$var wire 1 *" datapath0|ALU0|Add2~6_combout $end
$var wire 1 +" datapath0|ALU0|Add0~6_combout $end
$var wire 1 ," datapath0|ALU0|Add0~23_combout $end
$var wire 1 -" datapath0|mux0|Mux4~0_combout $end
$var wire 1 ." datapath0|mux0|Mux4~1_combout $end
$var wire 1 /" datapath0|mux0|Mux4~2_combout $end
$var wire 1 0" datapath0|mux0|Mux4~combout $end
$var wire 1 1" datapath0|mux2|Mux4~0_combout $end
$var wire 1 2" datapath0|mux2|Mux4~1_combout $end
$var wire 1 3" datapath0|ALU0|Add2~4_combout $end
$var wire 1 4" datapath0|ALU0|Add0~4_combout $end
$var wire 1 5" datapath0|ALU0|Add0~21_combout $end
$var wire 1 6" datapath0|mux0|Mux5~0_combout $end
$var wire 1 7" datapath0|mux0|Mux5~1_combout $end
$var wire 1 8" datapath0|mux0|Mux5~2_combout $end
$var wire 1 9" datapath0|mux0|Mux5~combout $end
$var wire 1 :" datapath0|mux2|Mux5~0_combout $end
$var wire 1 ;" datapath0|mux2|Mux5~1_combout $end
$var wire 1 <" datapath0|ALU0|Add2~2_combout $end
$var wire 1 =" datapath0|ALU0|Add0~2_combout $end
$var wire 1 >" datapath0|ALU0|Add0~19_combout $end
$var wire 1 ?" datapath0|mux0|Mux6~0_combout $end
$var wire 1 @" datapath0|mux0|Mux6~1_combout $end
$var wire 1 A" datapath0|mux0|Mux6~2_combout $end
$var wire 1 B" datapath0|mux0|Mux6~combout $end
$var wire 1 C" datapath0|mux2|Mux6~0_combout $end
$var wire 1 D" datapath0|mux2|Mux6~1_combout $end
$var wire 1 E" datapath0|ALU0|Add2~0_combout $end
$var wire 1 F" datapath0|ALU0|Add0~0_combout $end
$var wire 1 G" datapath0|ALU0|Mux11~0_combout $end
$var wire 1 H" datapath0|mux0|Mux7~0_combout $end
$var wire 1 I" datapath0|mux0|Mux7~1_combout $end
$var wire 1 J" datapath0|mux0|Mux7~2_combout $end
$var wire 1 K" datapath0|mux0|Mux7~combout $end
$var wire 1 L" datapath0|mux1|Mux7~0_combout $end
$var wire 1 M" datapath0|mux1|Mux7~1_combout $end
$var wire 1 N" controlador0|Mux7~1_combout $end
$var wire 1 O" controlador0|state.ADD~regout $end
$var wire 1 P" datapath0|regcarryflag|out0~1_combout $end
$var wire 1 Q" datapath0|regcarryflag|out0~regout $end
$var wire 1 R" datapath0|progmem0|altsyncram_component|auto_generated|q_a [7] $end
$var wire 1 S" datapath0|progmem0|altsyncram_component|auto_generated|q_a [6] $end
$var wire 1 T" datapath0|progmem0|altsyncram_component|auto_generated|q_a [5] $end
$var wire 1 U" datapath0|progmem0|altsyncram_component|auto_generated|q_a [4] $end
$var wire 1 V" datapath0|progmem0|altsyncram_component|auto_generated|q_a [3] $end
$var wire 1 W" datapath0|progmem0|altsyncram_component|auto_generated|q_a [2] $end
$var wire 1 X" datapath0|progmem0|altsyncram_component|auto_generated|q_a [1] $end
$var wire 1 Y" datapath0|progmem0|altsyncram_component|auto_generated|q_a [0] $end
$var wire 1 Z" datapath0|reg10|out0 [7] $end
$var wire 1 [" datapath0|reg10|out0 [6] $end
$var wire 1 \" datapath0|reg10|out0 [5] $end
$var wire 1 ]" datapath0|reg10|out0 [4] $end
$var wire 1 ^" datapath0|reg10|out0 [3] $end
$var wire 1 _" datapath0|reg10|out0 [2] $end
$var wire 1 `" datapath0|reg10|out0 [1] $end
$var wire 1 a" datapath0|reg10|out0 [0] $end
$var wire 1 b" datapath0|reout|out0 [7] $end
$var wire 1 c" datapath0|reout|out0 [6] $end
$var wire 1 d" datapath0|reout|out0 [5] $end
$var wire 1 e" datapath0|reout|out0 [4] $end
$var wire 1 f" datapath0|reout|out0 [3] $end
$var wire 1 g" datapath0|reout|out0 [2] $end
$var wire 1 h" datapath0|reout|out0 [1] $end
$var wire 1 i" datapath0|reout|out0 [0] $end
$var wire 1 j" datapath0|programcounter0|current [7] $end
$var wire 1 k" datapath0|programcounter0|current [6] $end
$var wire 1 l" datapath0|programcounter0|current [5] $end
$var wire 1 m" datapath0|programcounter0|current [4] $end
$var wire 1 n" datapath0|programcounter0|current [3] $end
$var wire 1 o" datapath0|programcounter0|current [2] $end
$var wire 1 p" datapath0|programcounter0|current [1] $end
$var wire 1 q" datapath0|programcounter0|current [0] $end
$var wire 1 r" controlador0|mux1select [1] $end
$var wire 1 s" controlador0|mux1select [0] $end
$var wire 1 t" controlador0|alucontrol [3] $end
$var wire 1 u" controlador0|alucontrol [2] $end
$var wire 1 v" controlador0|alucontrol [1] $end
$var wire 1 w" controlador0|alucontrol [0] $end
$var wire 1 x" datapath0|reg01|out0 [7] $end
$var wire 1 y" datapath0|reg01|out0 [6] $end
$var wire 1 z" datapath0|reg01|out0 [5] $end
$var wire 1 {" datapath0|reg01|out0 [4] $end
$var wire 1 |" datapath0|reg01|out0 [3] $end
$var wire 1 }" datapath0|reg01|out0 [2] $end
$var wire 1 ~" datapath0|reg01|out0 [1] $end
$var wire 1 !# datapath0|reg01|out0 [0] $end
$var wire 1 "# controlador0|mux2select [1] $end
$var wire 1 ## controlador0|mux2select [0] $end
$var wire 1 $# datapath0|reg11|out0 [7] $end
$var wire 1 %# datapath0|reg11|out0 [6] $end
$var wire 1 &# datapath0|reg11|out0 [5] $end
$var wire 1 '# datapath0|reg11|out0 [4] $end
$var wire 1 (# datapath0|reg11|out0 [3] $end
$var wire 1 )# datapath0|reg11|out0 [2] $end
$var wire 1 *# datapath0|reg11|out0 [1] $end
$var wire 1 +# datapath0|reg11|out0 [0] $end
$var wire 1 ,# controlador0|mux0select [2] $end
$var wire 1 -# controlador0|mux0select [1] $end
$var wire 1 .# controlador0|mux0select [0] $end
$var wire 1 /# datapath0|datamem0|altsyncram_component|auto_generated|q_a [7] $end
$var wire 1 0# datapath0|datamem0|altsyncram_component|auto_generated|q_a [6] $end
$var wire 1 1# datapath0|datamem0|altsyncram_component|auto_generated|q_a [5] $end
$var wire 1 2# datapath0|datamem0|altsyncram_component|auto_generated|q_a [4] $end
$var wire 1 3# datapath0|datamem0|altsyncram_component|auto_generated|q_a [3] $end
$var wire 1 4# datapath0|datamem0|altsyncram_component|auto_generated|q_a [2] $end
$var wire 1 5# datapath0|datamem0|altsyncram_component|auto_generated|q_a [1] $end
$var wire 1 6# datapath0|datamem0|altsyncram_component|auto_generated|q_a [0] $end
$var wire 1 7# datapath0|reg00|out0 [7] $end
$var wire 1 8# datapath0|reg00|out0 [6] $end
$var wire 1 9# datapath0|reg00|out0 [5] $end
$var wire 1 :# datapath0|reg00|out0 [4] $end
$var wire 1 ;# datapath0|reg00|out0 [3] $end
$var wire 1 <# datapath0|reg00|out0 [2] $end
$var wire 1 =# datapath0|reg00|out0 [1] $end
$var wire 1 ># datapath0|reg00|out0 [0] $end
$var wire 1 ?# datapath0|ALU0|temp [8] $end
$var wire 1 @# datapath0|ALU0|temp [7] $end
$var wire 1 A# datapath0|ALU0|temp [6] $end
$var wire 1 B# datapath0|ALU0|temp [5] $end
$var wire 1 C# datapath0|ALU0|temp [4] $end
$var wire 1 D# datapath0|ALU0|temp [3] $end
$var wire 1 E# datapath0|ALU0|temp [2] $end
$var wire 1 F# datapath0|ALU0|temp [1] $end
$var wire 1 G# datapath0|ALU0|temp [0] $end
$var wire 1 H# datapath0|progmem0|altsyncram_component|auto_generated|ram_block1a7_PORTADATAOUT_bus [0] $end
$var wire 1 I# datapath0|progmem0|altsyncram_component|auto_generated|ram_block1a6_PORTADATAOUT_bus [0] $end
$var wire 1 J# datapath0|progmem0|altsyncram_component|auto_generated|ram_block1a0_PORTADATAOUT_bus [0] $end
$var wire 1 K# datapath0|datamem0|altsyncram_component|auto_generated|ram_block1a0_PORTADATAOUT_bus [0] $end
$var wire 1 L# datapath0|progmem0|altsyncram_component|auto_generated|ram_block1a3_PORTADATAOUT_bus [0] $end
$var wire 1 M# datapath0|progmem0|altsyncram_component|auto_generated|ram_block1a2_PORTADATAOUT_bus [0] $end
$var wire 1 N# datapath0|progmem0|altsyncram_component|auto_generated|ram_block1a1_PORTADATAOUT_bus [0] $end
$var wire 1 O# datapath0|progmem0|altsyncram_component|auto_generated|ram_block1a5_PORTADATAOUT_bus [0] $end
$var wire 1 P# datapath0|progmem0|altsyncram_component|auto_generated|ram_block1a4_PORTADATAOUT_bus [0] $end
$var wire 1 Q# datapath0|datamem0|altsyncram_component|auto_generated|ram_block1a1_PORTADATAOUT_bus [0] $end
$var wire 1 R# datapath0|datamem0|altsyncram_component|auto_generated|ram_block1a2_PORTADATAOUT_bus [0] $end
$var wire 1 S# datapath0|datamem0|altsyncram_component|auto_generated|ram_block1a3_PORTADATAOUT_bus [0] $end
$var wire 1 T# datapath0|datamem0|altsyncram_component|auto_generated|ram_block1a4_PORTADATAOUT_bus [0] $end
$var wire 1 U# datapath0|datamem0|altsyncram_component|auto_generated|ram_block1a5_PORTADATAOUT_bus [0] $end
$var wire 1 V# datapath0|datamem0|altsyncram_component|auto_generated|ram_block1a6_PORTADATAOUT_bus [0] $end
$var wire 1 W# datapath0|datamem0|altsyncram_component|auto_generated|ram_block1a7_PORTADATAOUT_bus [0] $end
$upscope $end
$upscope $end
$enddefinitions $end
#0
$dumpvars
0!
1"
b0 #
0$
0%
0&
0.
0-
0,
0+
0*
0)
0(
0'
x/
00
11
x2
13
14
15
x6
x7
x8
x9
x:
x;
x<
x=
x>
x?
x@
xA
xB
xC
xD
xE
xF
0G
0H
0I
0J
0K
0L
1M
0N
0O
1P
0Q
0R
0S
1T
0U
0V
0W
1X
0Y
0Z
0[
0\
1]
0^
0_
0`
0a
1b
0c
0d
0e
0f
0g
0h
0i
0j
0k
0l
0m
0n
0o
0p
0q
0r
0s
1t
0u
0v
1w
0x
0y
0z
0{
0|
0}
0~
0!!
x"!
0#!
x$!
0%!
0&!
x'!
x(!
0)!
x*!
x+!
x,!
x-!
x.!
x/!
00!
01!
02!
03!
14!
15!
x6!
x7!
x8!
x9!
x:!
x;!
0<!
x=!
x>!
x?!
x@!
xA!
xB!
1C!
xD!
xE!
xF!
xG!
xH!
xI!
xJ!
xK!
xL!
xM!
0N!
0O!
xP!
xQ!
xR!
xS!
xT!
xU!
xV!
xW!
xX!
xY!
xZ!
x[!
x\!
x]!
x^!
x_!
x`!
xa!
xb!
xc!
xd!
xe!
xf!
xg!
xh!
xi!
xj!
xk!
xl!
xm!
xn!
xo!
xp!
xq!
xr!
xs!
xt!
xu!
xv!
xw!
xx!
xy!
xz!
x{!
x|!
x}!
x~!
x!"
x""
x#"
x$"
x%"
x&"
x'"
x("
x)"
x*"
x+"
x,"
x-"
x."
x/"
x0"
x1"
x2"
x3"
x4"
x5"
x6"
x7"
x8"
x9"
x:"
x;"
x<"
x="
x>"
x?"
x@"
xA"
xB"
xC"
xD"
xE"
xF"
xG"
xH"
xI"
xJ"
xK"
xL"
xM"
0N"
0O"
0P"
0Q"
0Y"
0X"
0W"
0V"
0U"
0T"
0S"
0R"
0a"
0`"
0_"
0^"
0]"
0\"
0["
0Z"
0i"
0h"
0g"
0f"
0e"
0d"
0c"
0b"
0q"
0p"
0o"
0n"
0m"
0l"
0k"
0j"
xs"
xr"
xw"
zv"
zu"
xt"
0!#
0~"
0}"
0|"
0{"
0z"
0y"
0x"
x##
x"#
0+#
0*#
0)#
0(#
0'#
0&#
0%#
0$#
x.#
x-#
x,#
06#
05#
04#
03#
02#
01#
00#
0/#
z>#
z=#
z<#
z;#
z:#
z9#
z8#
07#
xG#
xF#
xE#
xD#
xC#
xB#
xA#
x@#
x?#
0H#
0I#
0J#
0K#
0L#
0M#
0N#
0O#
0P#
0Q#
0R#
0S#
0T#
0U#
0V#
0W#
$end
#5000
1!
1K
0/
1c
1J
1^
1a
0b
#5001
xK#
xQ#
xR#
xS#
xU#
xV#
xW#
xT#
1P#
1O#
x6#
x5#
x4#
x3#
x1#
x0#
x/#
x2#
1U"
1T"
1z
0w
#10000
0!
0K
1/
#15000
1!
1K
0/
0c
1q"
1_
0^
1N
0M
0a
1O
#20000
0!
0K
1/
#25000
1!
1K
0/
1{
0_
1N!
1|
1d
1b
1a
1G
1!!
05!
1&
1-#
0.#
0,#
0Q!
0P!
16!
0J"
0A"
08"
0/"
0&"
0q!
0]!
0R!
0K"
0B"
09"
00"
1'"
0r!
0^!
1S!
#25001
1H#
1J#
1N#
1M#
1L#
1I#
1R"
1Y"
1X"
1W"
1V"
1S"
1r!
12!
0z
1K"
1&!
1v
1B"
1%!
1~
1o
19"
1#!
0!!
10"
1^!
#30000
0!
0K
1/
#35000
1!
1K
0/
1%#
1&#
1$#
1'#
1(#
1)#
1*#
1+#
0{
1c
0q"
1p"
0N!
0|
0d
1^
0G
0N
1M
0P
0O
1.#
0#!
15!
0b
1P
1O
1Q
0&
1Q!
0Q
1J"
1A"
18"
1/"
1&"
1q!
1]!
1R!
xK"
xB"
x9"
x0"
x'"
xr!
x^!
xS!
#40000
0!
0K
1/
#45000
1!
1K
0/
0c
1q"
1_
0^
1N
0M
0a
0P
0O
1Q
#45001
0J#
0N#
0M#
0L#
0O#
0Y"
0X"
0W"
0V"
0T"
0&!
0v
0%!
0~
0o
02!
1l
#50000
0!
0K
1/
#55000
1!
1K
0/
1m
0_
04!
1u
1d
1b
1a
1G
0s"
0r"
1&
0L"
0_!
0T!
0E!
0.!
0,!
0*!
0'!
0M"
0`!
0U!
0F!
0/!
0-!
0+!
0(!
0>!
17!
0?
0E
0D
0C
0B
0A
0@
1?!
08!
0@!
19!
1A!
0:!
0I!
1G!
1X!
0V!
0a!
1e!
1b!
0c!
0d!
#55001
0H#
0P#
0I#
0R"
0U"
0S"
1w
0l
#60000
0!
0K
1/
#65000
1!
1K
0/
0m
1c
0q"
0p"
1o"
14!
0u
0d
1^
0G
0N
1M
1P
1O
1R
0Q
0b
0O
0R
1Q
1S
0&
0S
#70000
0!
0K
1/
#75000
1!
1K
0/
0c
1q"
1_
0^
1N
0M
0a
1O
#75001
1P#
1O#
1U"
1T"
1z
0w
#80000
0!
0K
1/
#85000
1!
1K
0/
1{
0_
1N!
1|
1d
1b
1a
1G
1!!
05!
1&
0.#
0Q!
0J"
0A"
08"
0/"
0&"
0q!
0]!
0R!
0K"
0B"
09"
00"
1'"
0r!
0^!
1S!
#85001
1H#
1J#
1N#
1M#
1L#
1I#
1R"
1Y"
1X"
1W"
1V"
1S"
1r!
12!
0z
1K"
1&!
1v
1B"
1%!
1~
1o
19"
1#!
0!!
10"
1^!
#90000
0!
0K
1/
#95000
1!
1K
0/
0{
1c
0q"
1p"
0N!
0|
0d
1^
0G
0N
1M
0P
0O
1.#
0#!
15!
0b
1P
1O
1R
0Q
0&
1Q!
0R
1Q
1S
1J"
1A"
18"
1/"
1&"
1q!
1]!
1R!
0S
xK"
xB"
x9"
x0"
x'"
xr!
x^!
xS!
#100000
0!
0K
1/
#105000
1!
1K
0/
0c
1q"
1_
0^
1N
0M
0a
0P
0O
1R
0Q
1S
#105001
0J#
0N#
0M#
0L#
0O#
0Y"
0X"
0W"
0V"
0T"
0&!
0v
0%!
0~
0o
02!
1l
#110000
0!
0K
1/
#115000
1!
1K
0/
1m
0_
04!
1u
1d
1b
1a
1G
1&
#115001
0H#
0P#
0I#
0R"
0U"
0S"
1w
0l
#120000
0!
0K
1/
#125000
1!
1K
0/
0m
1c
0q"
0p"
0o"
1n"
14!
0u
0d
1^
0G
0N
1M
1P
1O
0R
1Q
0T
0S
0b
0O
0Q
1T
1S
1U
0&
0U
#130000
0!
0K
1/
#135000
1!
1K
0/
0c
1q"
1_
0^
1N
0M
0a
1O
#135001
1P#
1O#
1U"
1T"
1z
0w
#140000
0!
0K
1/
#145000
1!
1K
0/
1{
0_
1N!
1|
1d
1b
1a
1G
1!!
05!
1&
0.#
0Q!
0J"
0A"
08"
0/"
0&"
0q!
0]!
0R!
0K"
0B"
09"
00"
1'"
0r!
0^!
1S!
#145001
1H#
1J#
1N#
1M#
1L#
1I#
1R"
1Y"
1X"
1W"
1V"
1S"
1r!
12!
0z
1K"
1&!
1v
1B"
1%!
1~
1o
19"
1#!
0!!
10"
1^!
#150000
0!
0K
1/
#155000
1!
1K
0/
0{
1c
0q"
1p"
0N!
0|
0d
1^
0G
0N
1M
0P
0O
1.#
0#!
15!
0b
1P
1O
1Q
0&
1Q!
0Q
1J"
1A"
18"
1/"
1&"
1q!
1]!
1R!
xK"
xB"
x9"
x0"
x'"
xr!
x^!
xS!
#160000
0!
0K
1/
#165000
1!
1K
0/
0c
1q"
1_
0^
1N
0M
0a
0P
0O
1Q
#165001
0J#
0N#
0M#
0L#
0O#
0Y"
0X"
0W"
0V"
0T"
0&!
0v
0%!
0~
0o
02!
1l
#170000
0!
0K
1/
#175000
1!
1K
0/
1m
0_
04!
1u
1d
1b
1a
1G
1&
#175001
0H#
0P#
0I#
0R"
0U"
0S"
1w
0l
#180000
0!
0K
1/
#185000
1!
1K
0/
0m
1c
0q"
0p"
1o"
14!
0u
0d
1^
0G
0N
1M
1P
1O
1R
0Q
0b
0O
0R
1Q
0T
0S
0&
1T
1S
1U
0U
#190000
0!
0K
1/
#195000
1!
1K
0/
0c
1q"
1_
0^
1N
0M
0a
1O
#195001
1P#
1O#
1U"
1T"
1z
0w
#200000
0!
0K
1/
#205000
1!
1K
0/
1{
0_
1N!
1|
1d
1b
1a
1G
1!!
05!
1&
0.#
0Q!
0J"
0A"
08"
0/"
0&"
0q!
0]!
0R!
0K"
0B"
09"
00"
1'"
0r!
0^!
1S!
#205001
1H#
1J#
1N#
1M#
1L#
1I#
1R"
1Y"
1X"
1W"
1V"
1S"
1r!
12!
0z
1K"
1&!
1v
1B"
1%!
1~
1o
19"
1#!
0!!
10"
1^!
#210000
0!
0K
1/
#215000
1!
1K
0/
0{
1c
0q"
1p"
0N!
0|
0d
1^
0G
0N
1M
0P
0O
1.#
0#!
15!
0b
1P
1O
1R
0Q
0&
1Q!
0R
1Q
0T
0S
1J"
1A"
18"
1/"
1&"
1q!
1]!
1R!
1T
1S
1U
xK"
xB"
x9"
x0"
x'"
xr!
x^!
xS!
0U
#220000
0!
0K
1/
#225000
1!
1K
0/
0c
1q"
1_
0^
1N
0M
0a
0P
0O
1R
0Q
0T
0S
1U
#225001
0J#
0N#
0M#
0L#
0O#
0Y"
0X"
0W"
0V"
0T"
0&!
0v
0%!
0~
0o
02!
1l
#230000
0!
0K
1/
#235000
1!
1K
0/
1m
0_
04!
1u
1d
1b
1a
1G
1&
#235001
0H#
0P#
0I#
0R"
0U"
0S"
1w
0l
#240000
0!
0K
1/
#245000
1!
1K
0/
0m
1c
0q"
0p"
0o"
0n"
1m"
14!
0u
0d
1^
0G
0N
1M
1P
1O
0R
1Q
1T
1S
1V
0U
0b
0O
0Q
0S
0V
1U
1W
0&
0W
#250000
0!
0K
1/
#255000
1!
1K
0/
0c
1q"
1_
0^
1N
0M
0a
1O
#255001
1P#
1O#
1U"
1T"
1z
0w
#260000
0!
0K
1/
